{
    "type": "FeatureCollection",
    "features": [
        {
            "type": "Feature",
            "geometry": {
                "type": "Point",
                "coordinates": [
                    55.717964,
                    37.607637
                ]
            },
            "properties": {
                "balloonContentBody": "<div class=\"pickup__popup\"><img src=\"temp/pickup/popup.jpg\" class=\"pickup__popup-img\" alt=\"\"><div class=\"pickup__popup-content\"><div class=\"pickup__popup-title text-md\"><img src=\"/temp/pickup/2.png\" alt=\"\" class=\"pickup__popup-logo\"><span>Москва Стратонавтов_9741_С</span></div><p>Метро: «Тушинская», первый вагон из центра, выход на проезд Стратонавтов. 6-этажный жилой дом. Цокольный этаж, вывеска Пункт «Интернет Заказов», вниз по лестнице, далее по указателям.</p></div><a href=\"#\" class=\"pickup__popup-button button button_secondary\" data-size=\"lg\">Выбрать</a></div>",
                "hintContent": "Офис на Шаболовке"
            },
            "options": {
                "preset": "islands#redDotIcon",
                "balloonShadow": false,
                "balloonPanelMaxMapArea": "Infinity",
                "balloonPanelMaxHeightRatio": "none"
            }
        },
        {
            "type": "Feature",
            "geometry": {
                "type": "Point",
                "coordinates": [
                    55.599474,
                    37.597055
                ]
            },
            "properties": {
              "balloonContentBody": "<div class=\"pickup__popup\"><img src=\"temp/pickup/popup.jpg\" class=\"pickup__popup-img\" alt=\"\"><div class=\"pickup__popup-content\"><div class=\"pickup__popup-title text-md\"><img src=\"/temp/pickup/2.png\" alt=\"\" class=\"pickup__popup-logo\"><span>Москва Стратонавтов_9741_С</span></div><p>Метро: «Тушинская», первый вагон из центра, выход на проезд Стратонавтов. 6-этажный жилой дом. Цокольный этаж, вывеска Пункт «Интернет Заказов», вниз по лестнице, далее по указателям.</p></div><a href=\"#\" class=\"pickup__popup-button button button_secondary\" data-size=\"lg\">Выбрать</a></div>",
                "hintContent": "Центр выдачи в Москве"
            },
            "options": {
                "preset": "islands#redDotIcon",
                "balloonShadow": false,
                "balloonPanelMaxMapArea": "Infinity",
                "balloonPanelMaxHeightRatio": "none"
            }
        },
        {
            "type": "Feature",
            "geometry": {
                "type": "Point",
                "coordinates": [
                    55.857068,
                    37.393119
                ]
            },
            "properties": {
              "balloonContentBody": "<div class=\"pickup__popup\"><img src=\"temp/pickup/popup.jpg\" class=\"pickup__popup-img\" alt=\"\"><div class=\"pickup__popup-content\"><div class=\"pickup__popup-title text-md\"><img src=\"/temp/pickup/2.png\" alt=\"\" class=\"pickup__popup-logo\"><span>Москва Стратонавтов_9741_С</span></div><p>Метро: «Тушинская», первый вагон из центра, выход на проезд Стратонавтов. 6-этажный жилой дом. Цокольный этаж, вывеска Пункт «Интернет Заказов», вниз по лестнице, далее по указателям.</p></div><a href=\"#\" class=\"pickup__popup-button button button_secondary\" data-size=\"lg\">Выбрать</a></div>",
              "hintContent": "Центр выдачи в Москве"
            },
            "options": {
                "preset": "islands#redDotIcon",
                "balloonShadow": false,
                "balloonPanelMaxMapArea": "Infinity",
                "balloonPanelMaxHeightRatio": "none"
            }
        }
    ]
}
